\contentsline {chapter}{Abstract}{i}{Item.8}
\contentsline {chapter}{List of Figures}{iii}{chapter*.3}
\contentsline {chapter}{List of Tables}{iv}{chapter*.4}
\contentsline {chapter}{Nomenclature}{v}{chapter*.5}
\contentsline {chapter}{\numberline {1}Introduction}{1}{chapter.1}
\contentsline {section}{\numberline {1.1}Problem Definition}{1}{section.1.1}
\contentsline {section}{\numberline {1.2}Motivation of the thesis}{1}{section.1.2}
\contentsline {section}{\numberline {1.3}Scope of the thesis}{1}{section.1.3}
\contentsline {section}{\numberline {1.4}Salient contribution}{1}{section.1.4}
\contentsline {section}{\numberline {1.5}Organization of the Thesis}{2}{section.1.5}
\contentsline {chapter}{\numberline {2}Literature Survey}{3}{chapter.2}
\contentsline {section}{\numberline {2.1}e.g Preprocessing}{3}{section.2.1}
\contentsline {section}{\numberline {2.2}e.g Segmentation }{3}{section.2.2}
\contentsline {section}{\numberline {2.3}e. g Feature Extraction}{3}{section.2.3}
\contentsline {chapter}{\numberline {3}Software Project Management Plan }{4}{chapter.3}
\contentsline {section}{\numberline {3.1}Introduction}{4}{section.3.1}
\contentsline {subsection}{\numberline {3.1.1}Project Overview}{4}{subsection.3.1.1}
\contentsline {subsection}{\numberline {3.1.2}Project Deliverables}{4}{subsection.3.1.2}
\contentsline {section}{\numberline {3.2}Project Organization}{4}{section.3.2}
\contentsline {subsection}{\numberline {3.2.1}Software Process Model}{4}{subsection.3.2.1}
\contentsline {subsection}{\numberline {3.2.2}Roles and Responsibilities}{5}{subsection.3.2.2}
\contentsline {subsection}{\numberline {3.2.3}Tools and Techniques}{5}{subsection.3.2.3}
\contentsline {section}{\numberline {3.3}Project Management Plan}{5}{section.3.3}
\contentsline {subsection}{\numberline {3.3.1}Tasks}{6}{subsection.3.3.1}
\contentsline {subsubsection}{\numberline {3.3.1.1}Description}{6}{subsubsection.3.3.1.1}
\contentsline {subsubsection}{\numberline {3.3.1.2}Deliverables and Milestones}{6}{subsubsection.3.3.1.2}
\contentsline {subsubsection}{\numberline {3.3.1.3}Resources Needed}{6}{subsubsection.3.3.1.3}
\contentsline {subsubsection}{\numberline {3.3.1.4}Dependencies and Constraints}{6}{subsubsection.3.3.1.4}
\contentsline {subsubsection}{\numberline {3.3.1.5}Risk and Contingencies}{6}{subsubsection.3.3.1.5}
\contentsline {subsection}{\numberline {3.3.2}Assignment}{6}{subsection.3.3.2}
\contentsline {subsection}{\numberline {3.3.3}Time table}{6}{subsection.3.3.3}
\contentsline {chapter}{\numberline {4}Software Requirements Specification}{7}{chapter.4}
\contentsline {section}{\numberline {4.1}Introduction}{7}{section.4.1}
\contentsline {subsection}{\numberline {4.1.1}Product Overview}{7}{subsection.4.1.1}
\contentsline {section}{\numberline {4.2}Specific Requirements}{7}{section.4.2}
\contentsline {subsection}{\numberline {4.2.1}External Interface Requirements}{7}{subsection.4.2.1}
\contentsline {subsubsection}{\numberline {4.2.1.1}User Interfaces}{7}{subsubsection.4.2.1.1}
\contentsline {subsubsection}{\numberline {4.2.1.2}Hardware Interfaces}{7}{subsubsection.4.2.1.2}
\contentsline {subsubsection}{\numberline {4.2.1.3}Software Interfaces}{7}{subsubsection.4.2.1.3}
\contentsline {subsubsection}{\numberline {4.2.1.4}Communications Protocols}{7}{subsubsection.4.2.1.4}
\contentsline {subsection}{\numberline {4.2.2}Software Product Features}{8}{subsection.4.2.2}
\contentsline {subsection}{\numberline {4.2.3}Software System Attributes}{8}{subsection.4.2.3}
\contentsline {subsection}{\numberline {4.2.4}Database Requirements}{8}{subsection.4.2.4}
\contentsline {chapter}{\numberline {5}Software Design Description}{9}{chapter.5}
\contentsline {section}{\numberline {5.1}Introduction}{9}{section.5.1}
\contentsline {subsection}{\numberline {5.1.1}Design Overview}{9}{subsection.5.1.1}
\contentsline {subsection}{\numberline {5.1.2}Requirement Traceability Matrix}{9}{subsection.5.1.2}
\contentsline {section}{\numberline {5.2}System Architectural Design}{9}{section.5.2}
\contentsline {subsection}{\numberline {5.2.1}Chosen System Architecture}{9}{subsection.5.2.1}
\contentsline {subsection}{\numberline {5.2.2}Discussion of Alternative Designs}{9}{subsection.5.2.2}
\contentsline {subsection}{\numberline {5.2.3}System Interface Description}{10}{subsection.5.2.3}
\contentsline {section}{\numberline {5.3}Detailed Description of Components}{10}{section.5.3}
\contentsline {section}{\numberline {5.4}User Interface Design}{10}{section.5.4}
\contentsline {subsection}{\numberline {5.4.1}Description of User Interface}{10}{subsection.5.4.1}
\contentsline {subsubsection}{\numberline {5.4.1.1}Screen Images}{10}{subsubsection.5.4.1.1}
\contentsline {subsubsection}{\numberline {5.4.1.2}Objects and Actions}{10}{subsubsection.5.4.1.2}
\contentsline {chapter}{\numberline {6}Software Test Document}{11}{chapter.6}
\contentsline {section}{\numberline {6.1}Introduction}{11}{section.6.1}
\contentsline {subsection}{\numberline {6.1.1}System Overview}{11}{subsection.6.1.1}
\contentsline {subsection}{\numberline {6.1.2}Test Approach}{11}{subsection.6.1.2}
\contentsline {section}{\numberline {6.2}Introduction}{11}{section.6.2}
\contentsline {subsection}{\numberline {6.2.1}Features to be Tested}{11}{subsection.6.2.1}
\contentsline {subsection}{\numberline {6.2.2}Features not to be Tested}{11}{subsection.6.2.2}
\contentsline {subsection}{\numberline {6.2.3}Testing Tools and Environment}{11}{subsection.6.2.3}
\contentsline {section}{\numberline {6.3}Test Cases}{11}{section.6.3}
\contentsline {chapter}{\numberline {7}Conclusion and Scope for future work}{12}{chapter.7}
\contentsline {section}{\numberline {7.1}Conclusions}{12}{section.7.1}
\contentsline {section}{\numberline {7.2}Scope for future work}{12}{section.7.2}
\contentsline {chapter}{References}{12}{section.7.2}
\contentsline {chapter}{\numberline {8}Author's Publications}{13}{chapter.8}
